…
1.  Pop your cursor on line you want to run up to. e.g. `select(height,
    mass)`.

2.  Invoke the RStudio Addin `Break chain and run to cursor`

3.  Code is run in console from start of chain up to your cursor line:

<!-- end list -->

``` r
starwars %>%
  group_by(species, sex) %>%
  select(height, mass)
#> Adding missing grouping variables: `species`, `sex`
#> # A tibble: 87 x 4
#> # Groups:   species, sex [41]
#>    species sex    height  mass
#>    <chr>   <chr>   <int> <dbl>
#>  1 Human   male      172    77
#>  2 Droid   none      167    75
#>  3 Droid   none       96    32
#>  4 Human   male      202   136
#>  5 Human   female    150    49
#>  6 Human   male      178   120
#>  7 Human   female    165    75
#>  8 Droid   none       97    32
#>  9 Human   male      183    84
#> 10 Human   male      182    77
#> # ... with 77 more rows
```
…
